<?xml version="1.0" standalone="no"?>
 <!DOCTYPE svg PUBLIC "-//W3C//DTD SVG 1.1//EN" 
 "http://www.w3.org/Graphics/SVG/1.1/DTD/svg11.dtd"> 
<svg xmlns="http://www.w3.org/2000/svg" version="1.1" 
    width="9.44118cm" height="7.69874cm" viewBox="0 0 37170 30310 ">
<title>SVG Picture created as cry cry-brd.svg date 2020/03/11 15:02:28 </title>
  <desc>Picture generated by PCBNEW </desc>
<g style="fill:#000000; fill-opacity:1;stroke:#000000; stroke-opacity:1;
stroke-linecap:round; stroke-linejoin:round; "
 transform="translate(0 0) scale(1 1)">
</g>
<g style="fill:#000000; fill-opacity:0.0; 
stroke:#000000; stroke-width:-0.000393701; stroke-opacity:1; 
stroke-linecap:round; stroke-linejoin:round;">
<g >
</g>
<g style="fill:#000000; fill-opacity:0.0; 
stroke:#000000; stroke-width:0; stroke-opacity:1; 
stroke-linecap:round; stroke-linejoin:round;">
</g>
<g style="fill:#000000; fill-opacity:1.0; 
stroke:#000000; stroke-width:0; stroke-opacity:1; 
stroke-linecap:round; stroke-linejoin:round;">
<path style="fill:#000000; fill-opacity:1.0; 
stroke:#000000; stroke-width:0; stroke-opacity:1; 
stroke-linecap:round; stroke-linejoin:round;fill-rule:evenodd;"
d="M 25165.4,12880.9
25165.4,12211.6
25834.7,12211.6
25834.7,12880.9
Z" /> 
</g>
<g style="fill:#000000; fill-opacity:1.0; 
stroke:#000000; stroke-width:669.291; stroke-opacity:1; 
stroke-linecap:round; stroke-linejoin:round;">
</g>
<g style="fill:#000000; fill-opacity:0.0; 
stroke:#000000; stroke-width:669.291; stroke-opacity:1; 
stroke-linecap:round; stroke-linejoin:round;">
<path d="M25500 13546
L25500 13546
" />
<path d="M25500 14546
L25500 14546
" />
<path d="M25500 15546
L25500 15546
" />
<path d="M25500 16546
L25500 16546
" />
<path d="M25500 17546
L25500 17546
" />
<path d="M25500 18546
L25500 18546
" />
<path d="M25500 19546
L25500 19546
" />
<path d="M25500 20546
L25500 20546
" />
<path d="M25500 21546
L25500 21546
" />
<path d="M25500 22546
L25500 22546
" />
<path d="M25500 23546
L25500 23546
" />
<path d="M25500 24546
L25500 24546
" />
</g>
<g >
</g>
<g style="fill:#000000; fill-opacity:0.0; 
stroke:#000000; stroke-width:669.291; stroke-opacity:1; 
stroke-linecap:round; stroke-linejoin:round;">
</g>
<g style="fill:#000000; fill-opacity:0.0; 
stroke:#000000; stroke-width:0; stroke-opacity:1; 
stroke-linecap:round; stroke-linejoin:round;">
</g>
<g style="fill:#000000; fill-opacity:1.0; 
stroke:#000000; stroke-width:0; stroke-opacity:1; 
stroke-linecap:round; stroke-linejoin:round;">
<path style="fill:#000000; fill-opacity:1.0; 
stroke:#000000; stroke-width:0; stroke-opacity:1; 
stroke-linecap:round; stroke-linejoin:round;fill-rule:evenodd;"
d="M 24444.5,25754.7
24444.5,26463.7
23815.5,26463.7
23815.5,25754.7
Z" /> 
<path style="fill:#000000; fill-opacity:1.0; 
stroke:#000000; stroke-width:0; stroke-opacity:1; 
stroke-linecap:round; stroke-linejoin:round;fill-rule:evenodd;"
d="M 23326.5,25754.7
23326.5,26463.7
22697.5,26463.7
22697.5,25754.7
Z" /> 
</g>
<g >
</g>
<g style="fill:#000000; fill-opacity:1.0; 
stroke:#000000; stroke-width:0; stroke-opacity:1; 
stroke-linecap:round; stroke-linejoin:round;">
<path style="fill:#000000; fill-opacity:1.0; 
stroke:#000000; stroke-width:0; stroke-opacity:1; 
stroke-linecap:round; stroke-linejoin:round;fill-rule:evenodd;"
d="M 3354.42,24337.6
3354.42,25006.9
2685.13,25006.9
2685.13,24337.6
Z" /> 
</g>
<g style="fill:#000000; fill-opacity:1.0; 
stroke:#000000; stroke-width:669.291; stroke-opacity:1; 
stroke-linecap:round; stroke-linejoin:round;">
</g>
<g style="fill:#000000; fill-opacity:0.0; 
stroke:#000000; stroke-width:669.291; stroke-opacity:1; 
stroke-linecap:round; stroke-linejoin:round;">
<path d="M3019 23672
L3019 23672
" />
<path d="M3019 22672
L3019 22672
" />
<path d="M3019 21672
L3019 21672
" />
<path d="M3019 20672
L3019 20672
" />
<path d="M3019 19672
L3019 19672
" />
<path d="M3019 18672
L3019 18672
" />
<path d="M3019 17672
L3019 17672
" />
<path d="M3019 16672
L3019 16672
" />
<path d="M3019 15672
L3019 15672
" />
<path d="M3019 14672
L3019 14672
" />
</g>
<g >
</g>
<g style="fill:#000000; fill-opacity:0.0; 
stroke:#000000; stroke-width:669.291; stroke-opacity:1; 
stroke-linecap:round; stroke-linejoin:round;">
</g>
<g style="fill:#000000; fill-opacity:0.0; 
stroke:#000000; stroke-width:0; stroke-opacity:1; 
stroke-linecap:round; stroke-linejoin:round;">
</g>
<g style="fill:#000000; fill-opacity:1.0; 
stroke:#000000; stroke-width:0; stroke-opacity:1; 
stroke-linecap:round; stroke-linejoin:round;">
<path style="fill:#000000; fill-opacity:1.0; 
stroke:#000000; stroke-width:0; stroke-opacity:1; 
stroke-linecap:round; stroke-linejoin:round;fill-rule:evenodd;"
d="M 7747.73,26541.5
7747.73,25941.5
8647.73,25941.5
8647.73,26541.5
Z" /> 
<path style="fill:#000000; fill-opacity:1.0; 
stroke:#000000; stroke-width:0; stroke-opacity:1; 
stroke-linecap:round; stroke-linejoin:round;fill-rule:evenodd;"
d="M 5147.73,26541.5
5147.73,25941.5
6047.73,25941.5
6047.73,26541.5
Z" /> 
<path style="fill:#000000; fill-opacity:1.0; 
stroke:#000000; stroke-width:0; stroke-opacity:1; 
stroke-linecap:round; stroke-linejoin:round;fill-rule:evenodd;"
d="M 7747.73,24741.5
7747.73,24141.5
8647.73,24141.5
8647.73,24741.5
Z" /> 
<path style="fill:#000000; fill-opacity:1.0; 
stroke:#000000; stroke-width:0; stroke-opacity:1; 
stroke-linecap:round; stroke-linejoin:round;fill-rule:evenodd;"
d="M 5147.73,24741.5
5147.73,24141.5
6047.73,24141.5
6047.73,24741.5
Z" /> 
</g>
<g >
</g>
<g style="fill:#000000; fill-opacity:1.0; 
stroke:#000000; stroke-width:0; stroke-opacity:1; 
stroke-linecap:round; stroke-linejoin:round;">
<path style="fill:#000000; fill-opacity:1.0; 
stroke:#000000; stroke-width:0; stroke-opacity:1; 
stroke-linecap:round; stroke-linejoin:round;fill-rule:evenodd;"
d="M 9111.31,15800.6
8361.31,15800.6
8361.31,15300.6
9111.31,15300.6
Z" /> 
<path style="fill:#000000; fill-opacity:1.0; 
stroke:#000000; stroke-width:0; stroke-opacity:1; 
stroke-linecap:round; stroke-linejoin:round;fill-rule:evenodd;"
d="M 9111.31,14500.6
8361.31,14500.6
8361.31,14000.6
9111.31,14000.6
Z" /> 
</g>
<g >
</g>
<g style="fill:#000000; fill-opacity:1.0; 
stroke:#000000; stroke-width:0; stroke-opacity:1; 
stroke-linecap:round; stroke-linejoin:round;">
<path style="fill:#000000; fill-opacity:1.0; 
stroke:#000000; stroke-width:0; stroke-opacity:1; 
stroke-linecap:round; stroke-linejoin:round;fill-rule:evenodd;"
d="M 23176.3,12906.9
23926.3,12906.9
23926.3,13406.9
23176.3,13406.9
Z" /> 
<path style="fill:#000000; fill-opacity:1.0; 
stroke:#000000; stroke-width:0; stroke-opacity:1; 
stroke-linecap:round; stroke-linejoin:round;fill-rule:evenodd;"
d="M 23176.3,11606.9
23926.3,11606.9
23926.3,12106.9
23176.3,12106.9
Z" /> 
</g>
<g >
</g>
<g style="fill:#000000; fill-opacity:1.0; 
stroke:#000000; stroke-width:0; stroke-opacity:1; 
stroke-linecap:round; stroke-linejoin:round;">
<path style="fill:#000000; fill-opacity:1.0; 
stroke:#000000; stroke-width:0; stroke-opacity:1; 
stroke-linecap:round; stroke-linejoin:round;fill-rule:evenodd;"
d="M 19986.7,14832.7
19986.7,15582.7
19486.7,15582.7
19486.7,14832.7
Z" /> 
<path style="fill:#000000; fill-opacity:1.0; 
stroke:#000000; stroke-width:0; stroke-opacity:1; 
stroke-linecap:round; stroke-linejoin:round;fill-rule:evenodd;"
d="M 18686.7,14832.7
18686.7,15582.7
18186.7,15582.7
18186.7,14832.7
Z" /> 
</g>
<g >
</g>
<g style="fill:#000000; fill-opacity:1.0; 
stroke:#000000; stroke-width:0; stroke-opacity:1; 
stroke-linecap:round; stroke-linejoin:round;">
<path style="fill:#000000; fill-opacity:1.0; 
stroke:#000000; stroke-width:0; stroke-opacity:1; 
stroke-linecap:round; stroke-linejoin:round;fill-rule:evenodd;"
d="M 17752.1,26188
18421.4,26188
18421.4,26857.3
17752.1,26857.3
Z" /> 
</g>
<g style="fill:#000000; fill-opacity:1.0; 
stroke:#000000; stroke-width:669.291; stroke-opacity:1; 
stroke-linecap:round; stroke-linejoin:round;">
</g>
<g style="fill:#000000; fill-opacity:0.0; 
stroke:#000000; stroke-width:669.291; stroke-opacity:1; 
stroke-linecap:round; stroke-linejoin:round;">
<path d="M17086 26522
L17086 26522
" />
<path d="M16086 26522
L16086 26522
" />
<path d="M15086 26522
L15086 26522
" />
<path d="M14086 26522
L14086 26522
" />
<path d="M13086 26522
L13086 26522
" />
<path d="M12086 26522
L12086 26522
" />
<path d="M11086 26522
L11086 26522
" />
<path d="M10086 26522
L10086 26522
" />
</g>
<g >
</g>
<g style="fill:#000000; fill-opacity:0.0; 
stroke:#000000; stroke-width:669.291; stroke-opacity:1; 
stroke-linecap:round; stroke-linejoin:round;">
</g>
<g style="fill:#000000; fill-opacity:0.0; 
stroke:#000000; stroke-width:0; stroke-opacity:1; 
stroke-linecap:round; stroke-linejoin:round;">
</g>
<g style="fill:#000000; fill-opacity:1.0; 
stroke:#000000; stroke-width:0; stroke-opacity:1; 
stroke-linecap:round; stroke-linejoin:round;">
<path style="fill:#000000; fill-opacity:1.0; 
stroke:#000000; stroke-width:0; stroke-opacity:1; 
stroke-linecap:round; stroke-linejoin:round;fill-rule:evenodd;"
d="M 20629.6,25597.3
20629.6,26306.3
20000.6,26306.3
20000.6,25597.3
Z" /> 
<path style="fill:#000000; fill-opacity:1.0; 
stroke:#000000; stroke-width:0; stroke-opacity:1; 
stroke-linecap:round; stroke-linejoin:round;fill-rule:evenodd;"
d="M 21747.6,25597.3
21747.6,26306.3
21118.6,26306.3
21118.6,25597.3
Z" /> 
</g>
<g >
</g>
<g style="fill:#000000; fill-opacity:1.0; 
stroke:#000000; stroke-width:0; stroke-opacity:1; 
stroke-linecap:round; stroke-linejoin:round;">
<path style="fill:#000000; fill-opacity:1.0; 
stroke:#000000; stroke-width:0; stroke-opacity:1; 
stroke-linecap:round; stroke-linejoin:round;fill-rule:evenodd;"
d="M 12541.4,11762.8
12041.4,11762.8
12041.4,10762.8
12541.4,10762.8
Z" /> 
<path style="fill:#000000; fill-opacity:1.0; 
stroke:#000000; stroke-width:0; stroke-opacity:1; 
stroke-linecap:round; stroke-linejoin:round;fill-rule:evenodd;"
d="M 13541.4,11762.8
13041.4,11762.8
13041.4,10762.8
13541.4,10762.8
Z" /> 
<path style="fill:#000000; fill-opacity:1.0; 
stroke:#000000; stroke-width:0; stroke-opacity:1; 
stroke-linecap:round; stroke-linejoin:round;fill-rule:evenodd;"
d="M 14541.4,11762.8
14041.4,11762.8
14041.4,10762.8
14541.4,10762.8
Z" /> 
<path style="fill:#000000; fill-opacity:1.0; 
stroke:#000000; stroke-width:0; stroke-opacity:1; 
stroke-linecap:round; stroke-linejoin:round;fill-rule:evenodd;"
d="M 15541.4,11762.8
15041.4,11762.8
15041.4,10762.8
15541.4,10762.8
Z" /> 
<path style="fill:#000000; fill-opacity:1.0; 
stroke:#000000; stroke-width:0; stroke-opacity:1; 
stroke-linecap:round; stroke-linejoin:round;fill-rule:evenodd;"
d="M 16541.4,11762.8
16041.4,11762.8
16041.4,10762.8
16541.4,10762.8
Z" /> 
<path style="fill:#000000; fill-opacity:1.0; 
stroke:#000000; stroke-width:0; stroke-opacity:1; 
stroke-linecap:round; stroke-linejoin:round;fill-rule:evenodd;"
d="M 17541.4,11762.8
17041.4,11762.8
17041.4,10762.8
17541.4,10762.8
Z" /> 
</g>
<g >
</g>
<g style="fill:#000000; fill-opacity:1.0; 
stroke:#000000; stroke-width:0; stroke-opacity:1; 
stroke-linecap:round; stroke-linejoin:round;">
<path style="fill:#000000; fill-opacity:1.0; 
stroke:#000000; stroke-width:0; stroke-opacity:1; 
stroke-linecap:round; stroke-linejoin:round;fill-rule:evenodd;"
d="M 6774.5,14336.6
6774.5,15086.6
6274.5,15086.6
6274.5,14336.6
Z" /> 
<path style="fill:#000000; fill-opacity:1.0; 
stroke:#000000; stroke-width:0; stroke-opacity:1; 
stroke-linecap:round; stroke-linejoin:round;fill-rule:evenodd;"
d="M 5474.5,14336.6
5474.5,15086.6
4974.5,15086.6
4974.5,14336.6
Z" /> 
</g>
<g >
</g>
<g style="fill:#000000; fill-opacity:1.0; 
stroke:#000000; stroke-width:0; stroke-opacity:1; 
stroke-linecap:round; stroke-linejoin:round;">
<path style="fill:#000000; fill-opacity:1.0; 
stroke:#000000; stroke-width:0; stroke-opacity:1; 
stroke-linecap:round; stroke-linejoin:round;fill-rule:evenodd;"
d="M 21109.3,24462
21859.3,24462
21859.3,24962
21109.3,24962
Z" /> 
<path style="fill:#000000; fill-opacity:1.0; 
stroke:#000000; stroke-width:0; stroke-opacity:1; 
stroke-linecap:round; stroke-linejoin:round;fill-rule:evenodd;"
d="M 21109.3,23162
21859.3,23162
21859.3,23662
21109.3,23662
Z" /> 
</g>
<g >
</g>
<g style="fill:#000000; fill-opacity:1.0; 
stroke:#000000; stroke-width:0; stroke-opacity:1; 
stroke-linecap:round; stroke-linejoin:round;">
<path style="fill:#000000; fill-opacity:1.0; 
stroke:#000000; stroke-width:0; stroke-opacity:1; 
stroke-linecap:round; stroke-linejoin:round;fill-rule:evenodd;"
d="M 22861.3,23004.5
23611.3,23004.5
23611.3,23504.5
22861.3,23504.5
Z" /> 
<path style="fill:#000000; fill-opacity:1.0; 
stroke:#000000; stroke-width:0; stroke-opacity:1; 
stroke-linecap:round; stroke-linejoin:round;fill-rule:evenodd;"
d="M 22861.3,24304.5
23611.3,24304.5
23611.3,24804.5
22861.3,24804.5
Z" /> 
</g>
<g >
</g>
<g style="fill:#000000; fill-opacity:1.0; 
stroke:#000000; stroke-width:0; stroke-opacity:1; 
stroke-linecap:round; stroke-linejoin:round;">
<path style="fill:#000000; fill-opacity:1.0; 
stroke:#000000; stroke-width:0; stroke-opacity:1; 
stroke-linecap:round; stroke-linejoin:round;fill-rule:evenodd;"
d="M 14972.5,18034.4
14972.5,20396.6
12610.3,20396.6
12610.3,18034.4
Z" /> 
<path style="fill:#000000; fill-opacity:1.0; 
stroke:#000000; stroke-width:0; stroke-opacity:1; 
stroke-linecap:round; stroke-linejoin:round;fill-rule:evenodd;"
d="M 10858.4,16046.3
10858.4,16321.8
9874.11,16321.8
9874.11,16046.3
Z" /> 
<path style="fill:#000000; fill-opacity:1.0; 
stroke:#000000; stroke-width:0; stroke-opacity:1; 
stroke-linecap:round; stroke-linejoin:round;fill-rule:evenodd;"
d="M 10858.4,16546.3
10858.4,16821.8
9874.11,16821.8
9874.11,16546.3
Z" /> 
<path style="fill:#000000; fill-opacity:1.0; 
stroke:#000000; stroke-width:0; stroke-opacity:1; 
stroke-linecap:round; stroke-linejoin:round;fill-rule:evenodd;"
d="M 10858.4,17046.3
10858.4,17321.8
9874.11,17321.8
9874.11,17046.3
Z" /> 
<path style="fill:#000000; fill-opacity:1.0; 
stroke:#000000; stroke-width:0; stroke-opacity:1; 
stroke-linecap:round; stroke-linejoin:round;fill-rule:evenodd;"
d="M 10858.4,17546.3
10858.4,17821.8
9874.11,17821.8
9874.11,17546.3
Z" /> 
<path style="fill:#000000; fill-opacity:1.0; 
stroke:#000000; stroke-width:0; stroke-opacity:1; 
stroke-linecap:round; stroke-linejoin:round;fill-rule:evenodd;"
d="M 10858.4,18046.3
10858.4,18321.8
9874.11,18321.8
9874.11,18046.3
Z" /> 
<path style="fill:#000000; fill-opacity:1.0; 
stroke:#000000; stroke-width:0; stroke-opacity:1; 
stroke-linecap:round; stroke-linejoin:round;fill-rule:evenodd;"
d="M 10858.4,18546.3
10858.4,18821.8
9874.11,18821.8
9874.11,18546.3
Z" /> 
<path style="fill:#000000; fill-opacity:1.0; 
stroke:#000000; stroke-width:0; stroke-opacity:1; 
stroke-linecap:round; stroke-linejoin:round;fill-rule:evenodd;"
d="M 10858.4,19046.3
10858.4,19321.8
9874.11,19321.8
9874.11,19046.3
Z" /> 
<path style="fill:#000000; fill-opacity:1.0; 
stroke:#000000; stroke-width:0; stroke-opacity:1; 
stroke-linecap:round; stroke-linejoin:round;fill-rule:evenodd;"
d="M 10858.4,19546.3
10858.4,19821.8
9874.11,19821.8
9874.11,19546.3
Z" /> 
<path style="fill:#000000; fill-opacity:1.0; 
stroke:#000000; stroke-width:0; stroke-opacity:1; 
stroke-linecap:round; stroke-linejoin:round;fill-rule:evenodd;"
d="M 10858.4,20046.3
10858.4,20321.8
9874.11,20321.8
9874.11,20046.3
Z" /> 
<path style="fill:#000000; fill-opacity:1.0; 
stroke:#000000; stroke-width:0; stroke-opacity:1; 
stroke-linecap:round; stroke-linejoin:round;fill-rule:evenodd;"
d="M 10858.4,20546.3
10858.4,20821.8
9874.11,20821.8
9874.11,20546.3
Z" /> 
<path style="fill:#000000; fill-opacity:1.0; 
stroke:#000000; stroke-width:0; stroke-opacity:1; 
stroke-linecap:round; stroke-linejoin:round;fill-rule:evenodd;"
d="M 10858.4,21046.3
10858.4,21321.8
9874.11,21321.8
9874.11,21046.3
Z" /> 
<path style="fill:#000000; fill-opacity:1.0; 
stroke:#000000; stroke-width:0; stroke-opacity:1; 
stroke-linecap:round; stroke-linejoin:round;fill-rule:evenodd;"
d="M 10858.4,21546.3
10858.4,21821.8
9874.11,21821.8
9874.11,21546.3
Z" /> 
<path style="fill:#000000; fill-opacity:1.0; 
stroke:#000000; stroke-width:0; stroke-opacity:1; 
stroke-linecap:round; stroke-linejoin:round;fill-rule:evenodd;"
d="M 10858.4,22046.3
10858.4,22321.8
9874.11,22321.8
9874.11,22046.3
Z" /> 
<path style="fill:#000000; fill-opacity:1.0; 
stroke:#000000; stroke-width:0; stroke-opacity:1; 
stroke-linecap:round; stroke-linejoin:round;fill-rule:evenodd;"
d="M 10858.4,22546.3
10858.4,22821.8
9874.11,22821.8
9874.11,22546.3
Z" /> 
<path style="fill:#000000; fill-opacity:1.0; 
stroke:#000000; stroke-width:0; stroke-opacity:1; 
stroke-linecap:round; stroke-linejoin:round;fill-rule:evenodd;"
d="M 11797.3,22778.5
11797.3,23762.8
11521.7,23762.8
11521.7,22778.5
Z" /> 
<path style="fill:#000000; fill-opacity:1.0; 
stroke:#000000; stroke-width:0; stroke-opacity:1; 
stroke-linecap:round; stroke-linejoin:round;fill-rule:evenodd;"
d="M 12297.3,22778.5
12297.3,23762.8
12021.7,23762.8
12021.7,22778.5
Z" /> 
<path style="fill:#000000; fill-opacity:1.0; 
stroke:#000000; stroke-width:0; stroke-opacity:1; 
stroke-linecap:round; stroke-linejoin:round;fill-rule:evenodd;"
d="M 12797.3,22778.5
12797.3,23762.8
12521.7,23762.8
12521.7,22778.5
Z" /> 
<path style="fill:#000000; fill-opacity:1.0; 
stroke:#000000; stroke-width:0; stroke-opacity:1; 
stroke-linecap:round; stroke-linejoin:round;fill-rule:evenodd;"
d="M 13297.3,22778.5
13297.3,23762.8
13021.7,23762.8
13021.7,22778.5
Z" /> 
<path style="fill:#000000; fill-opacity:1.0; 
stroke:#000000; stroke-width:0; stroke-opacity:1; 
stroke-linecap:round; stroke-linejoin:round;fill-rule:evenodd;"
d="M 13797.3,22778.5
13797.3,23762.8
13521.7,23762.8
13521.7,22778.5
Z" /> 
<path style="fill:#000000; fill-opacity:1.0; 
stroke:#000000; stroke-width:0; stroke-opacity:1; 
stroke-linecap:round; stroke-linejoin:round;fill-rule:evenodd;"
d="M 14297.3,22778.5
14297.3,23762.8
14021.7,23762.8
14021.7,22778.5
Z" /> 
<path style="fill:#000000; fill-opacity:1.0; 
stroke:#000000; stroke-width:0; stroke-opacity:1; 
stroke-linecap:round; stroke-linejoin:round;fill-rule:evenodd;"
d="M 14797.3,22778.5
14797.3,23762.8
14521.7,23762.8
14521.7,22778.5
Z" /> 
<path style="fill:#000000; fill-opacity:1.0; 
stroke:#000000; stroke-width:0; stroke-opacity:1; 
stroke-linecap:round; stroke-linejoin:round;fill-rule:evenodd;"
d="M 15297.3,22778.5
15297.3,23762.8
15021.7,23762.8
15021.7,22778.5
Z" /> 
<path style="fill:#000000; fill-opacity:1.0; 
stroke:#000000; stroke-width:0; stroke-opacity:1; 
stroke-linecap:round; stroke-linejoin:round;fill-rule:evenodd;"
d="M 15797.3,22778.5
15797.3,23762.8
15521.7,23762.8
15521.7,22778.5
Z" /> 
<path style="fill:#000000; fill-opacity:1.0; 
stroke:#000000; stroke-width:0; stroke-opacity:1; 
stroke-linecap:round; stroke-linejoin:round;fill-rule:evenodd;"
d="M 16297.3,22778.5
16297.3,23762.8
16021.7,23762.8
16021.7,22778.5
Z" /> 
<path style="fill:#000000; fill-opacity:1.0; 
stroke:#000000; stroke-width:0; stroke-opacity:1; 
stroke-linecap:round; stroke-linejoin:round;fill-rule:evenodd;"
d="M 17945,22546.3
17945,22821.8
16960.7,22821.8
16960.7,22546.3
Z" /> 
<path style="fill:#000000; fill-opacity:1.0; 
stroke:#000000; stroke-width:0; stroke-opacity:1; 
stroke-linecap:round; stroke-linejoin:round;fill-rule:evenodd;"
d="M 17945,22046.3
17945,22321.8
16960.7,22321.8
16960.7,22046.3
Z" /> 
<path style="fill:#000000; fill-opacity:1.0; 
stroke:#000000; stroke-width:0; stroke-opacity:1; 
stroke-linecap:round; stroke-linejoin:round;fill-rule:evenodd;"
d="M 17945,21546.3
17945,21821.8
16960.7,21821.8
16960.7,21546.3
Z" /> 
<path style="fill:#000000; fill-opacity:1.0; 
stroke:#000000; stroke-width:0; stroke-opacity:1; 
stroke-linecap:round; stroke-linejoin:round;fill-rule:evenodd;"
d="M 17945,21046.3
17945,21321.8
16960.7,21321.8
16960.7,21046.3
Z" /> 
<path style="fill:#000000; fill-opacity:1.0; 
stroke:#000000; stroke-width:0; stroke-opacity:1; 
stroke-linecap:round; stroke-linejoin:round;fill-rule:evenodd;"
d="M 17945,20546.3
17945,20821.8
16960.7,20821.8
16960.7,20546.3
Z" /> 
<path style="fill:#000000; fill-opacity:1.0; 
stroke:#000000; stroke-width:0; stroke-opacity:1; 
stroke-linecap:round; stroke-linejoin:round;fill-rule:evenodd;"
d="M 17945,20046.3
17945,20321.8
16960.7,20321.8
16960.7,20046.3
Z" /> 
<path style="fill:#000000; fill-opacity:1.0; 
stroke:#000000; stroke-width:0; stroke-opacity:1; 
stroke-linecap:round; stroke-linejoin:round;fill-rule:evenodd;"
d="M 17945,19546.3
17945,19821.8
16960.7,19821.8
16960.7,19546.3
Z" /> 
<path style="fill:#000000; fill-opacity:1.0; 
stroke:#000000; stroke-width:0; stroke-opacity:1; 
stroke-linecap:round; stroke-linejoin:round;fill-rule:evenodd;"
d="M 17945,19046.3
17945,19321.8
16960.7,19321.8
16960.7,19046.3
Z" /> 
<path style="fill:#000000; fill-opacity:1.0; 
stroke:#000000; stroke-width:0; stroke-opacity:1; 
stroke-linecap:round; stroke-linejoin:round;fill-rule:evenodd;"
d="M 17945,18546.3
17945,18821.8
16960.7,18821.8
16960.7,18546.3
Z" /> 
<path style="fill:#000000; fill-opacity:1.0; 
stroke:#000000; stroke-width:0; stroke-opacity:1; 
stroke-linecap:round; stroke-linejoin:round;fill-rule:evenodd;"
d="M 17945,18046.3
17945,18321.8
16960.7,18321.8
16960.7,18046.3
Z" /> 
<path style="fill:#000000; fill-opacity:1.0; 
stroke:#000000; stroke-width:0; stroke-opacity:1; 
stroke-linecap:round; stroke-linejoin:round;fill-rule:evenodd;"
d="M 17945,17546.3
17945,17821.8
16960.7,17821.8
16960.7,17546.3
Z" /> 
<path style="fill:#000000; fill-opacity:1.0; 
stroke:#000000; stroke-width:0; stroke-opacity:1; 
stroke-linecap:round; stroke-linejoin:round;fill-rule:evenodd;"
d="M 17945,17046.3
17945,17321.8
16960.7,17321.8
16960.7,17046.3
Z" /> 
<path style="fill:#000000; fill-opacity:1.0; 
stroke:#000000; stroke-width:0; stroke-opacity:1; 
stroke-linecap:round; stroke-linejoin:round;fill-rule:evenodd;"
d="M 17945,16546.3
17945,16821.8
16960.7,16821.8
16960.7,16546.3
Z" /> 
<path style="fill:#000000; fill-opacity:1.0; 
stroke:#000000; stroke-width:0; stroke-opacity:1; 
stroke-linecap:round; stroke-linejoin:round;fill-rule:evenodd;"
d="M 17945,16046.3
17945,16321.8
16960.7,16321.8
16960.7,16046.3
Z" /> 
</g>
<g >
</g>
<g style="fill:#000000; fill-opacity:1.0; 
stroke:#000000; stroke-width:0; stroke-opacity:1; 
stroke-linecap:round; stroke-linejoin:round;">
<path style="fill:#000000; fill-opacity:1.0; 
stroke:#000000; stroke-width:0; stroke-opacity:1; 
stroke-linecap:round; stroke-linejoin:round;fill-rule:evenodd;"
d="M 20807.2,11471.4
19311.1,11471.4
19311.1,10684
20807.2,10684
Z" /> 
<path style="fill:#000000; fill-opacity:1.0; 
stroke:#000000; stroke-width:0; stroke-opacity:1; 
stroke-linecap:round; stroke-linejoin:round;fill-rule:evenodd;"
d="M 20354.4,13951.8
19763.9,13951.8
19763.9,13164.4
20354.4,13164.4
Z" /> 
<path style="fill:#000000; fill-opacity:1.0; 
stroke:#000000; stroke-width:0; stroke-opacity:1; 
stroke-linecap:round; stroke-linejoin:round;fill-rule:evenodd;"
d="M 21259.9,13951.8
20669.4,13951.8
20669.4,13164.4
21259.9,13164.4
Z" /> 
<path style="fill:#000000; fill-opacity:1.0; 
stroke:#000000; stroke-width:0; stroke-opacity:1; 
stroke-linecap:round; stroke-linejoin:round;fill-rule:evenodd;"
d="M 19448.9,13951.8
18858.4,13951.8
18858.4,13164.4
19448.9,13164.4
Z" /> 
</g>
<g >
</g>
<g style="fill:#000000; fill-opacity:1.0; 
stroke:#000000; stroke-width:0; stroke-opacity:1; 
stroke-linecap:round; stroke-linejoin:round;">
<path style="fill:#000000; fill-opacity:1.0; 
stroke:#000000; stroke-width:0; stroke-opacity:1; 
stroke-linecap:round; stroke-linejoin:round;fill-rule:evenodd;"
d="M 8728.27,11141.3
9437.27,11141.3
9437.27,11770.3
8728.27,11770.3
Z" /> 
<path style="fill:#000000; fill-opacity:1.0; 
stroke:#000000; stroke-width:0; stroke-opacity:1; 
stroke-linecap:round; stroke-linejoin:round;fill-rule:evenodd;"
d="M 8728.27,12259.3
9437.27,12259.3
9437.27,12888.3
8728.27,12888.3
Z" /> 
</g>
<g >
</g>
<g style="fill:#000000; fill-opacity:1.0; 
stroke:#000000; stroke-width:0; stroke-opacity:1; 
stroke-linecap:round; stroke-linejoin:round;">
<path style="fill:#000000; fill-opacity:1.0; 
stroke:#000000; stroke-width:0; stroke-opacity:1; 
stroke-linecap:round; stroke-linejoin:round;fill-rule:evenodd;"
d="M 10597.5,11493.5
11347.5,11493.5
11347.5,11993.5
10597.5,11993.5
Z" /> 
<path style="fill:#000000; fill-opacity:1.0; 
stroke:#000000; stroke-width:0; stroke-opacity:1; 
stroke-linecap:round; stroke-linejoin:round;fill-rule:evenodd;"
d="M 10597.5,10193.5
11347.5,10193.5
11347.5,10693.5
10597.5,10693.5
Z" /> 
</g>
<g >
</g>
<g style="fill:#000000; fill-opacity:1.0; 
stroke:#000000; stroke-width:0; stroke-opacity:1; 
stroke-linecap:round; stroke-linejoin:round;">
<path style="fill:#000000; fill-opacity:1.0; 
stroke:#000000; stroke-width:0; stroke-opacity:1; 
stroke-linecap:round; stroke-linejoin:round;fill-rule:evenodd;"
d="M 9829.82,23299.8
10579.8,23299.8
10579.8,23799.8
9829.82,23799.8
Z" /> 
<path style="fill:#000000; fill-opacity:1.0; 
stroke:#000000; stroke-width:0; stroke-opacity:1; 
stroke-linecap:round; stroke-linejoin:round;fill-rule:evenodd;"
d="M 9829.82,24599.8
10579.8,24599.8
10579.8,25099.8
9829.82,25099.8
Z" /> 
</g>
<g >
</g>
<g style="fill:#000000; fill-opacity:1.0; 
stroke:#000000; stroke-width:0; stroke-opacity:1; 
stroke-linecap:round; stroke-linejoin:round;">
<path style="fill:#000000; fill-opacity:1.0; 
stroke:#000000; stroke-width:0; stroke-opacity:1; 
stroke-linecap:round; stroke-linejoin:round;fill-rule:evenodd;"
d="M 6611.9,9634.84
7211.9,9634.84
7211.9,10534.8
6611.9,10534.8
Z" /> 
<path style="fill:#000000; fill-opacity:1.0; 
stroke:#000000; stroke-width:0; stroke-opacity:1; 
stroke-linecap:round; stroke-linejoin:round;fill-rule:evenodd;"
d="M 6611.9,12234.8
7211.9,12234.8
7211.9,13134.8
6611.9,13134.8
Z" /> 
<path style="fill:#000000; fill-opacity:1.0; 
stroke:#000000; stroke-width:0; stroke-opacity:1; 
stroke-linecap:round; stroke-linejoin:round;fill-rule:evenodd;"
d="M 4811.9,9634.84
5411.9,9634.84
5411.9,10534.8
4811.9,10534.8
Z" /> 
<path style="fill:#000000; fill-opacity:1.0; 
stroke:#000000; stroke-width:0; stroke-opacity:1; 
stroke-linecap:round; stroke-linejoin:round;fill-rule:evenodd;"
d="M 4811.9,12234.8
5411.9,12234.8
5411.9,13134.8
4811.9,13134.8
Z" /> 
</g>
<g >
</g>
<g style="fill:#000000; fill-opacity:1.0; 
stroke:#000000; stroke-width:0; stroke-opacity:1; 
stroke-linecap:round; stroke-linejoin:round;">
<path style="fill:#000000; fill-opacity:1.0; 
stroke:#000000; stroke-width:0; stroke-opacity:1; 
stroke-linecap:round; stroke-linejoin:round;fill-rule:evenodd;"
d="M 17527.6,23511.6
17527.6,23983.6
17134.6,23983.6
17134.6,23511.6
Z" /> 
<path style="fill:#000000; fill-opacity:1.0; 
stroke:#000000; stroke-width:0; stroke-opacity:1; 
stroke-linecap:round; stroke-linejoin:round;fill-rule:evenodd;"
d="M 18511.6,23511.6
18511.6,23983.6
18118.6,23983.6
18118.6,23511.6
Z" /> 
<path style="fill:#000000; fill-opacity:1.0; 
stroke:#000000; stroke-width:0; stroke-opacity:1; 
stroke-linecap:round; stroke-linejoin:round;fill-rule:evenodd;"
d="M 19495.6,23511.6
19495.6,23983.6
19102.6,23983.6
19102.6,23511.6
Z" /> 
</g>
<g >
</g>
<g >
</g>
<g style="fill:#000000; fill-opacity:1.0; 
stroke:#000000; stroke-width:0; stroke-opacity:1; 
stroke-linecap:round; stroke-linejoin:round;">
</g>
<g style="fill:#000000; fill-opacity:1.0; 
stroke:#000000; stroke-width:157.48; stroke-opacity:1; 
stroke-linecap:round; stroke-linejoin:round;">
</g>
<g style="fill:#000000; fill-opacity:0.0; 
stroke:#000000; stroke-width:157.48; stroke-opacity:1; 
stroke-linecap:round; stroke-linejoin:round;">
<path d="M19586 15057
L19736 15207
" />
<path d="M1818 13510
L1818 25964
" />
<path d="M6205 26241
L8197 26241
" />
<path d="M5597 26241
L6205 26241
" />
<path d="M9716 16684
L10366 16684
" />
<path d="M8970 16684
L9716 16684
" />
<path d="M8736 15550
L8736 15958
" />
<path d="M8736 15550
L8203 15550
" />
<path d="M4817 14711
L5224 14711
" />
<path d="M4250 14145
L4817 14711
" />
<path d="M4240 13530
L4250 14145
" />
</g>
<g style="fill:#000000; fill-opacity:0.0; 
stroke:#000000; stroke-width:118.11; stroke-opacity:1; 
stroke-linecap:round; stroke-linejoin:round;">
<path d="M7652 15550
L8736 15550
" />
<path d="M7389 15287
L7652 15550
" />
<path d="M8736 16450
L8970 16684
" />
<path d="M8736 15550
L8736 16450
" />
</g>
<g style="fill:#000000; fill-opacity:0.0; 
stroke:#000000; stroke-width:157.48; stroke-opacity:1; 
stroke-linecap:round; stroke-linejoin:round;">
<path d="M10972 10443
L10964 9723
" />
</g>
<g style="fill:#000000; fill-opacity:0.0; 
stroke:#000000; stroke-width:118.11; stroke-opacity:1; 
stroke-linecap:round; stroke-linejoin:round;">
<path d="M10952 9711
L10964 9723
" />
<path d="M19736 15207
L19736 14569
" />
<path d="M20059 14247
L20059 13558
" />
<path d="M19736 14569
L20059 14247
" />
<path d="M20059 14247
L22350 14239
" />
<path d="M22350 14239
L22350 12644
" />
<path d="M22448 12546
L25500 12546
" />
<path d="M22350 12644
L22448 12546
" />
<path d="M20059 11589
L19378 12270
" />
<path d="M20059 11077
L20059 11589
" />
<path d="M19378 12270
L15224 12270
" />
<path d="M14757 11804
L14757 10465
" />
<path d="M15224 12270
L14757 11804
" />
<path d="M14757 10465
L14417 10124
" />
<path d="M11465 10443
L10972 10443
" />
<path d="M11784 10124
L11465 10443
" />
<path d="M14417 10124
L11784 10124
" />
<path d="M5259 9066
L10948 9066
" />
<path d="M10948 9066
L10952 9062
" />
<path d="M10952 9711
L10952 9062
" />
</g>
<g style="fill:#000000; fill-opacity:0.0; 
stroke:#000000; stroke-width:157.48; stroke-opacity:1; 
stroke-linecap:round; stroke-linejoin:round;">
<path d="M4250 9770
L4240 13530
" />
<path d="M4968 9062
L4250 9770
" />
<path d="M5259 9066
L5224 9062
" />
<path d="M5224 9062
L4968 9062
" />
<path d="M5893 13030
L5874 9711
" />
<path d="M7389 15287
L7389 14526
" />
<path d="M7389 14526
L5893 13030
" />
<path d="M5874 9711
L5259 9066
" />
</g>
<g style="fill:#000000; fill-opacity:0.0; 
stroke:#000000; stroke-width:118.11; stroke-opacity:1; 
stroke-linecap:round; stroke-linejoin:round;">
<path d="M1818 26247
L1897 26325
" />
<path d="M1818 25964
L1818 26247
" />
<path d="M1897 26325
L4925 26345
" />
<path d="M5029 26241
L5597 26241
" />
<path d="M4925 26345
L5029 26241
" />
<path d="M1818 13510
L4240 13530
" />
</g>
<g style="fill:#000000; fill-opacity:0.0; 
stroke:#000000; stroke-width:157.48; stroke-opacity:1; 
stroke-linecap:round; stroke-linejoin:round;">
<path d="M18029 15207
L17433 15803
" />
<path d="M17452 15888
L17452 16184
" />
<path d="M18436 15207
L18029 15207
" />
<path d="M18909 13802
L19153 13558
" />
<path d="M12291 11920
L12291 11262
" />
<path d="M9594 12573
L9901 12880
" />
<path d="M9082 12573
L9594 12573
" />
<path d="M12452 19215
L13791 19215
" />
<path d="M11659 20008
L12452 19215
" />
<path d="M11659 23270
L11659 20008
" />
<path d="M12098 16184
L13791 17876
" />
<path d="M10366 16184
L12098 16184
" />
<path d="M15484 16184
L13791 17876
" />
<path d="M13791 17876
L13791 19215
" />
<path d="M17452 16184
L15484 16184
" />
<path d="M6911 12684
L7369 12684
" />
<path d="M6911 10084
L6911 12684
" />
<path d="M11659 23920
L11659 23270
" />
<path d="M11659 24117
L11659 23920
" />
<path d="M19653 23747
L19653 23747
" />
<path d="M19299 23747
L19653 23747
" />
<path d="M19653 23747
L20165 23747
" />
<path d="M20295 24034
L20295 26463
" />
<path d="M20165 23747
L20177 23758
" />
<path d="M20315 26463
L20748 26896
" />
<path d="M20315 25951
L20315 26463
" />
<path d="M23011 26621
L23011 26109
" />
<path d="M22736 26896
L23011 26621
" />
<path d="M20748 26896
L22736 26896
" />
</g>
<g style="fill:#000000; fill-opacity:0.0; 
stroke:#000000; stroke-width:118.11; stroke-opacity:1; 
stroke-linecap:round; stroke-linejoin:round;">
<path d="M11659 24117
L11659 24280
" />
<path d="M11090 24849
L10204 24849
" />
<path d="M11659 24280
L11090 24849
" />
</g>
<g style="fill:#000000; fill-opacity:0.0; 
stroke:#000000; stroke-width:157.48; stroke-opacity:1; 
stroke-linecap:round; stroke-linejoin:round;">
<path d="M16724 20810
L16724 23010
" />
<path d="M13791 19215
L15130 19215
" />
<path d="M15130 19215
L16724 20810
" />
<path d="M16724 23010
L16720 23058
" />
</g>
<g style="fill:#000000; fill-opacity:0.0; 
stroke:#000000; stroke-width:118.11; stroke-opacity:1; 
stroke-linecap:round; stroke-linejoin:round;">
<path d="M19239 24200
L19299 24141
" />
<path d="M16858 24200
L19239 24200
" />
<path d="M16720 23058
L16720 24062
" />
<path d="M16720 24062
L16858 24200
" />
<path d="M19299 24141
L19299 23747
" />
<path d="M20165 23747
L20263 23747
" />
<path d="M20295 23778
L20295 24034
" />
<path d="M20263 23747
L20295 23778
" />
</g>
<g style="fill:#000000; fill-opacity:0.0; 
stroke:#000000; stroke-width:157.48; stroke-opacity:1; 
stroke-linecap:round; stroke-linejoin:round;">
<path d="M10366 16184
L10366 15888
" />
<path d="M9220 14250
L8736 14250
" />
</g>
<g style="fill:#000000; fill-opacity:0.0; 
stroke:#000000; stroke-width:118.11; stroke-opacity:1; 
stroke-linecap:round; stroke-linejoin:round;">
<path d="M8243 14250
L8736 14250
" />
<path d="M7909 14250
L8243 14250
" />
<path d="M6911 13252
L7909 14250
" />
<path d="M6911 12684
L6911 13252
" />
<path d="M8736 14250
L9229 14250
" />
<path d="M9850 14871
L9850 16010
" />
<path d="M10023 16184
L10366 16184
" />
<path d="M9850 16010
L10023 16184
" />
<path d="M17433 16046
L17452 16065
" />
<path d="M17433 15803
L17433 16046
" />
<path d="M9988 12880
L9988 14062
" />
<path d="M9988 14062
L9515 14534
" />
</g>
<g style="fill:#000000; fill-opacity:0.0; 
stroke:#000000; stroke-width:157.48; stroke-opacity:1; 
stroke-linecap:round; stroke-linejoin:round;">
<path d="M9988 12880
L11818 12880
" />
<path d="M9901 12880
L9988 12880
" />
</g>
<g style="fill:#000000; fill-opacity:0.0; 
stroke:#000000; stroke-width:118.11; stroke-opacity:1; 
stroke-linecap:round; stroke-linejoin:round;">
<path d="M9229 14250
L9515 14534
" />
<path d="M9515 14534
L9850 14871
" />
<path d="M12291 11920
L12291 12782
" />
</g>
<g style="fill:#000000; fill-opacity:0.0; 
stroke:#000000; stroke-width:157.48; stroke-opacity:1; 
stroke-linecap:round; stroke-linejoin:round;">
<path d="M11818 12880
L12193 12880
" />
</g>
<g style="fill:#000000; fill-opacity:0.0; 
stroke:#000000; stroke-width:118.11; stroke-opacity:1; 
stroke-linecap:round; stroke-linejoin:round;">
<path d="M12291 12782
L12193 12880
" />
<path d="M24433 13546
L25500 13546
" />
<path d="M23551 13156
L24044 13156
" />
<path d="M24044 13156
L24433 13546
" />
<path d="M18523 13558
L19153 13558
" />
<path d="M18413 13668
L18523 13558
" />
<path d="M18436 13691
L18436 15207
" />
<path d="M18413 13668
L18436 13691
" />
</g>
<g style="fill:#000000; fill-opacity:0.0; 
stroke:#000000; stroke-width:157.48; stroke-opacity:1; 
stroke-linecap:round; stroke-linejoin:round;">
<path d="M18766 16069
L21681 16069
" />
<path d="M18436 15207
L18436 15740
" />
<path d="M18436 15740
L18766 16069
" />
</g>
<g style="fill:#000000; fill-opacity:0.0; 
stroke:#000000; stroke-width:118.11; stroke-opacity:1; 
stroke-linecap:round; stroke-linejoin:round;">
<path d="M23511 14928
L23551 14888
" />
<path d="M22901 14928
L23511 14928
" />
<path d="M23551 14888
L23551 13156
" />
<path d="M21681 16069
L21759 16069
" />
<path d="M21759 16069
L22901 14928
" />
<path d="M14291 10644
L14279 10632
" />
<path d="M14291 11262
L14291 10644
" />
<path d="M23551 11488
L23551 11856
" />
<path d="M20543 12624
L20964 13046
" />
<path d="M15035 12624
L20543 12624
" />
<path d="M20964 13046
L20964 13558
" />
<path d="M14291 11880
L15035 12624
" />
<path d="M14291 11262
L14291 11880
" />
<path d="M22154 11856
L23551 11856
" />
<path d="M20964 13046
L22154 11856
" />
</g>
<g style="fill:#000000; fill-opacity:0.0; 
stroke:#000000; stroke-width:157.48; stroke-opacity:1; 
stroke-linecap:round; stroke-linejoin:round;">
<path d="M3511 24672
L3551 24632
" />
<path d="M3019 24672
L3511 24672
" />
<path d="M3551 24632
L4161 24632
" />
<path d="M6110 22684
L10366 22684
" />
<path d="M4161 24632
L6110 22684
" />
<path d="M9716 22184
L10366 22184
" />
<path d="M3493 23672
L3536 23628
" />
<path d="M3019 23672
L3493 23672
" />
<path d="M3536 23628
L4279 23628
" />
<path d="M5724 22184
L9716 22184
" />
<path d="M4279 23628
L5724 22184
" />
<path d="M3493 21672
L3504 21660
" />
<path d="M3019 21672
L3493 21672
" />
<path d="M3504 21660
L4318 21660
" />
<path d="M4795 21184
L10366 21184
" />
<path d="M4318 21660
L4795 21184
" />
<path d="M10354 20672
L10366 20684
" />
<path d="M3019 20672
L10354 20672
" />
<path d="M4338 19672
L3019 19672
" />
<path d="M10366 20184
L4850 20184
" />
<path d="M4850 20184
L4338 19672
" />
<path d="M9716 19684
L9704 19672
" />
<path d="M10366 19684
L9716 19684
" />
<path d="M9704 19672
L5204 19672
" />
<path d="M4204 18672
L3019 18672
" />
<path d="M5204 19672
L4204 18672
" />
<path d="M4110 17672
L3019 17672
" />
<path d="M10366 19184
L5622 19184
" />
<path d="M5622 19184
L4110 17672
" />
<path d="M6067 18684
L10366 18684
" />
<path d="M4980 17597
L6067 18684
" />
<path d="M4055 16672
L4980 17597
" />
<path d="M3019 16672
L4055 16672
" />
<path d="M4456 16168
L4574 16247
" />
<path d="M10366 18184
L6492 18184
" />
<path d="M6492 18184
L4456 16168
" />
</g>
<g style="fill:#000000; fill-opacity:0.0; 
stroke:#000000; stroke-width:118.11; stroke-opacity:1; 
stroke-linecap:round; stroke-linejoin:round;">
<path d="M4334 16006
L4574 16247
" />
<path d="M3019 15672
L3354 16006
" />
<path d="M3354 16006
L4334 16006
" />
</g>
<g style="fill:#000000; fill-opacity:0.0; 
stroke:#000000; stroke-width:157.48; stroke-opacity:1; 
stroke-linecap:round; stroke-linejoin:round;">
<path d="M7507 17684
L10366 17684
" />
</g>
<g style="fill:#000000; fill-opacity:0.0; 
stroke:#000000; stroke-width:118.11; stroke-opacity:1; 
stroke-linecap:round; stroke-linejoin:round;">
<path d="M3493 14672
L4595 15774
" />
<path d="M3019 14672
L3493 14672
" />
</g>
<g style="fill:#000000; fill-opacity:0.0; 
stroke:#000000; stroke-width:157.48; stroke-opacity:1; 
stroke-linecap:round; stroke-linejoin:round;">
<path d="M5559 15774
L7507 17684
" />
</g>
<g style="fill:#000000; fill-opacity:0.0; 
stroke:#000000; stroke-width:118.11; stroke-opacity:1; 
stroke-linecap:round; stroke-linejoin:round;">
<path d="M4595 15774
L5559 15774
" />
<path d="M16159 23270
L16149 24888
" />
<path d="M16149 24888
L16169 24888
" />
<path d="M17468 25451
L18086 26069
" />
<path d="M18086 26069
L18086 26522
" />
<path d="M16732 25451
L17468 25451
" />
<path d="M16169 24888
L16732 25451
" />
<path d="M15659 23270
L15696 25105
" />
<path d="M15696 25105
L16563 25727
" />
<path d="M16563 25727
L16929 25727
" />
<path d="M17086 25884
L17086 26522
" />
<path d="M16929 25727
L17086 25884
" />
<path d="M15159 23270
L15165 25262
" />
<path d="M15165 25262
L15618 25735
" />
<path d="M15618 25735
L16031 25735
" />
<path d="M16086 25790
L16086 26522
" />
<path d="M16031 25735
L16086 25790
" />
<path d="M14673 23894
L14653 25459
" />
<path d="M15086 25813
L15086 26522
" />
<path d="M14653 25459
L15086 25813
" />
<path d="M14659 23270
L14659 23880
" />
<path d="M14659 23880
L14673 23894
" />
<path d="M14159 26449
L14086 26522
" />
<path d="M14159 23270
L14159 26449
" />
</g>
<g style="fill:#000000; fill-opacity:0.0; 
stroke:#000000; stroke-width:157.48; stroke-opacity:1; 
stroke-linecap:round; stroke-linejoin:round;">
<path d="M13578 23351
L13659 23270
" />
</g>
<g style="fill:#000000; fill-opacity:0.0; 
stroke:#000000; stroke-width:118.11; stroke-opacity:1; 
stroke-linecap:round; stroke-linejoin:round;">
<path d="M13659 23270
L13659 24800
" />
<path d="M13659 24800
L13078 25380
" />
<path d="M13086 25388
L13086 26522
" />
<path d="M13078 25380
L13086 25388
" />
</g>
<g style="fill:#000000; fill-opacity:0.0; 
stroke:#000000; stroke-width:157.48; stroke-opacity:1; 
stroke-linecap:round; stroke-linejoin:round;">
<path d="M13159 23804
L13159 23270
" />
<path d="M13159 23920
L13159 23804
" />
</g>
<g style="fill:#000000; fill-opacity:0.0; 
stroke:#000000; stroke-width:118.11; stroke-opacity:1; 
stroke-linecap:round; stroke-linejoin:round;">
<path d="M12086 25605
L12086 26522
" />
<path d="M13159 23804
L13159 24532
" />
<path d="M13159 24532
L12086 25605
" />
<path d="M12659 23880
L12665 23886
" />
<path d="M12659 23270
L12659 23880
" />
<path d="M12665 23886
L12665 24376
" />
<path d="M11086 25955
L11086 26522
" />
<path d="M12665 24376
L11086 25955
" />
<path d="M12159 23880
L12153 23886
" />
<path d="M12159 23270
L12159 23880
" />
<path d="M12153 23886
L12153 24258
" />
<path d="M12153 24258
L10874 25538
" />
<path d="M10874 25538
L10106 25538
" />
<path d="M10086 25558
L10086 26522
" />
<path d="M10106 25538
L10086 25558
" />
</g>
<g style="fill:#000000; fill-opacity:0.0; 
stroke:#000000; stroke-width:157.48; stroke-opacity:1; 
stroke-linecap:round; stroke-linejoin:round;">
<path d="M17452 16684
L23015 16684
" />
</g>
<g style="fill:#000000; fill-opacity:0.0; 
stroke:#000000; stroke-width:118.11; stroke-opacity:1; 
stroke-linecap:round; stroke-linejoin:round;">
<path d="M24614 14554
L25500 14546
" />
<path d="M23846 15380
L24338 14849
" />
<path d="M23015 16684
L23114 16684
" />
<path d="M24338 14849
L24614 14554
" />
<path d="M23114 16684
L23846 15380
" />
</g>
<g style="fill:#000000; fill-opacity:0.0; 
stroke:#000000; stroke-width:157.48; stroke-opacity:1; 
stroke-linecap:round; stroke-linejoin:round;">
<path d="M17452 17184
L23393 17132
" />
</g>
<g style="fill:#000000; fill-opacity:0.0; 
stroke:#000000; stroke-width:118.11; stroke-opacity:1; 
stroke-linecap:round; stroke-linejoin:round;">
<path d="M24378 15577
L24693 15577
" />
<path d="M24842 15546
L25500 15546
" />
<path d="M23393 17132
L23492 17132
" />
<path d="M24693 15577
L24842 15546
" />
<path d="M23492 17132
L24378 15577
" />
</g>
<g style="fill:#000000; fill-opacity:0.0; 
stroke:#000000; stroke-width:157.48; stroke-opacity:1; 
stroke-linecap:round; stroke-linejoin:round;">
<path d="M25381 18664
L25500 18546
" />
<path d="M17452 18684
L24378 18687
" />
<path d="M24539 18546
L25500 18546
" />
<path d="M24378 18687
L24539 18546
" />
<path d="M25381 19664
L25500 19546
" />
<path d="M17452 19684
L24397 19672
" />
<path d="M24523 19546
L25500 19546
" />
<path d="M24397 19672
L24523 19546
" />
<path d="M24366 20565
L25500 20546
" />
<path d="M17452 20184
L23984 20184
" />
<path d="M23984 20184
L24366 20565
" />
<path d="M24578 21565
L25500 21546
" />
<path d="M17452 20684
L23696 20684
" />
<path d="M23696 20684
L24578 21565
" />
<path d="M24614 22546
L25500 22546
" />
<path d="M17452 21184
L23311 21184
" />
<path d="M23311 21184
L24614 22546
" />
<path d="M21413 24782
L21484 24712
" />
</g>
<g style="fill:#000000; fill-opacity:0.0; 
stroke:#000000; stroke-width:118.11; stroke-opacity:1; 
stroke-linecap:round; stroke-linejoin:round;">
<path d="M21484 25900
L21433 25951
" />
<path d="M21484 24712
L21484 25900
" />
<path d="M23236 24922
L23655 25341
" />
<path d="M23236 24554
L23236 24922
" />
<path d="M23655 25341
L24082 25341
" />
<path d="M24129 25388
L24129 26109
" />
<path d="M24082 25341
L24129 25388
" />
</g>
<g style="fill:#000000; fill-opacity:0.0; 
stroke:#000000; stroke-width:157.48; stroke-opacity:1; 
stroke-linecap:round; stroke-linejoin:round;">
<path d="M10366 17184
L8001 17184
" />
<path d="M6524 14586
L6524 14711
" />
<path d="M5111 12684
L5111 13299
" />
<path d="M5111 12077
L5111 10084
" />
<path d="M5111 12684
L5111 12077
" />
<path d="M6524 15766
L6524 14711
" />
<path d="M6117 14179
L6524 14586
" />
<path d="M5992 14179
L6117 14179
" />
<path d="M5111 13299
L5992 14179
" />
</g>
<g style="fill:#000000; fill-opacity:0.0; 
stroke:#000000; stroke-width:118.11; stroke-opacity:1; 
stroke-linecap:round; stroke-linejoin:round;">
<path d="M6583 15766
L8001 17184
" />
<path d="M6524 15766
L6583 15766
" />
</g>
<g style="fill:#000000; fill-opacity:0.0; 
stroke:#000000; stroke-width:157.48; stroke-opacity:1; 
stroke-linecap:round; stroke-linejoin:round;">
<path d="M10921 21684
L11149 21912
" />
<path d="M10366 21684
L10921 21684
" />
<path d="M11149 21912
L11149 22919
" />
<path d="M8197 24441
L5597 24441
" />
</g>
<g style="fill:#000000; fill-opacity:0.0; 
stroke:#000000; stroke-width:118.11; stroke-opacity:1; 
stroke-linecap:round; stroke-linejoin:round;">
<path d="M9121 24141
L9121 23648
" />
<path d="M8821 24441
L9121 24141
" />
<path d="M8197 24441
L8821 24441
" />
<path d="M4653 24810
L5022 24441
" />
<path d="M4653 24958
L4653 24810
" />
<path d="M5027 24441
L5622 24441
" />
<path d="M11149 22919
L11149 23274
" />
<path d="M10874 23549
L10204 23549
" />
<path d="M11149 23274
L10874 23549
" />
<path d="M10204 23549
L9147 23549
" />
<path d="M9147 23622
L9121 23648
" />
<path d="M9147 23549
L9147 23622
" />
</g>
<g style="fill:#000000; fill-opacity:0.0; 
stroke:#000000; stroke-width:157.48; stroke-opacity:1; 
stroke-linecap:round; stroke-linejoin:round;">
<path d="M2546 22672
L2538 22664
" />
<path d="M2538 22664
L2330 22762
" />
<path d="M3019 22672
L2546 22672
" />
<path d="M2330 22762
L2153 22880
" />
<path d="M2153 22880
L2153 25971
" />
</g>
<g style="fill:#000000; fill-opacity:0.0; 
stroke:#000000; stroke-width:118.11; stroke-opacity:1; 
stroke-linecap:round; stroke-linejoin:round;">
<path d="M3944 25971
L4653 25262
" />
<path d="M2153 25971
L3944 25971
" />
<path d="M4653 25262
L4648 24973
" />
<path d="M26067 16546
L25169 16546
" />
<path d="M26070 16542
L26067 16546
" />
<path d="M26342 16546
L26362 16526
" />
<path d="M26283 16546
L26342 16546
" />
<path d="M16291 10514
L16291 11262
" />
<path d="M26346 10715
L26346 10223
" />
<path d="M16287 10243
L16287 10510
" />
<path d="M20126 10223
L16287 10243
" />
<path d="M16287 10510
L16291 10514
" />
<path d="M26279 16542
L26283 16546
" />
<path d="M24358 16758
L23728 17703
" />
<path d="M25500 16546
L24480 16546
" />
<path d="M24480 16546
L24358 16758
" />
</g>
<g style="fill:#000000; fill-opacity:0.0; 
stroke:#000000; stroke-width:157.48; stroke-opacity:1; 
stroke-linecap:round; stroke-linejoin:round;">
<path d="M17452 17684
L23728 17703
" />
</g>
<g style="fill:#000000; fill-opacity:0.0; 
stroke:#000000; stroke-width:118.11; stroke-opacity:1; 
stroke-linecap:round; stroke-linejoin:round;">
<path d="M26346 16475
L26279 16542
" />
<path d="M26346 10597
L26346 16475
" />
<path d="M26070 16542
L26279 16542
" />
<path d="M26346 10223
L20126 10223
" />
</g>
<g style="fill:#000000; fill-opacity:0.0; 
stroke:#000000; stroke-width:157.48; stroke-opacity:1; 
stroke-linecap:round; stroke-linejoin:round;">
<path d="M24476 17585
L26425 17565
" />
<path d="M17452 18184
L24193 18184
" />
<path d="M24193 18184
L24476 17585
" />
<path d="M25500 17546
L26425 17565
" />
</g>
<g style="fill:#000000; fill-opacity:0.0; 
stroke:#000000; stroke-width:118.11; stroke-opacity:1; 
stroke-linecap:round; stroke-linejoin:round;">
<path d="M15283 10636
L15291 10644
" />
<path d="M15291 10644
L15291 11262
" />
<path d="M26779 17565
L26799 17546
" />
<path d="M26228 17565
L26779 17565
" />
</g>
<g style="fill:#000000; fill-opacity:0.0; 
stroke:#000000; stroke-width:157.48; stroke-opacity:1; 
stroke-linecap:round; stroke-linejoin:round;">
<path d="M26799 17546
L26799 9928
" />
</g>
<g style="fill:#000000; fill-opacity:0.0; 
stroke:#000000; stroke-width:118.11; stroke-opacity:1; 
stroke-linecap:round; stroke-linejoin:round;">
<path d="M15342 9928
L15263 10006
" />
<path d="M26799 9928
L15342 9928
" />
<path d="M15283 10636
L15263 10006
" />
<path d="M15263 10006
L15283 9928
" />
</g>
<g style="fill:#000000; fill-opacity:0.0; 
stroke:#000000; stroke-width:157.48; stroke-opacity:1; 
stroke-linecap:round; stroke-linejoin:round;">
<path d="M10763 11534
L10972 11743
" />
<path d="M9082 11455
L11373 11455
" />
<path d="M17452 22684
L18102 22684
" />
</g>
<g style="fill:#000000; fill-opacity:0.0; 
stroke:#000000; stroke-width:118.11; stroke-opacity:1; 
stroke-linecap:round; stroke-linejoin:round;">
<path d="M18315 22896
L18315 23747
" />
<path d="M18102 22684
L18315 22896
" />
<path d="M22350 23097
L22350 21719
" />
<path d="M22350 21719
L22311 21680
" />
</g>
<g style="fill:#000000; fill-opacity:0.0; 
stroke:#000000; stroke-width:157.48; stroke-opacity:1; 
stroke-linecap:round; stroke-linejoin:round;">
<path d="M17452 21684
L22311 21680
" />
</g>
<g style="fill:#000000; fill-opacity:0.0; 
stroke:#000000; stroke-width:118.11; stroke-opacity:1; 
stroke-linecap:round; stroke-linejoin:round;">
<path d="M22507 23254
L23236 23254
" />
<path d="M22350 23097
L22507 23254
" />
<path d="M25208 23254
L25500 23546
" />
<path d="M23236 23254
L25208 23254
" />
</g>
<g style="fill:#000000; fill-opacity:0.0; 
stroke:#000000; stroke-width:157.48; stroke-opacity:1; 
stroke-linecap:round; stroke-linejoin:round;">
<path d="M17452 22184
L21326 22211
" />
<path d="M22016 23412
L21484 23412
" />
</g>
<g style="fill:#000000; fill-opacity:0.0; 
stroke:#000000; stroke-width:118.11; stroke-opacity:1; 
stroke-linecap:round; stroke-linejoin:round;">
<path d="M21484 22369
L21484 23412
" />
<path d="M21326 22211
L21484 22369
" />
<path d="M22016 23412
L22509 23904
" />
<path d="M22509 23904
L23826 23904
" />
<path d="M24468 24546
L25500 24546
" />
<path d="M23826 23904
L24468 24546
" />
</g>
<g >
</g>
</g>
<g style="fill:#FFFFFF; fill-opacity:0.0; 
stroke:#FFFFFF; stroke-width:118.11; stroke-opacity:1; 
stroke-linecap:round; stroke-linejoin:round;">
</g>
<g style="fill:#FFFFFF; fill-opacity:1.0; 
stroke:#FFFFFF; stroke-width:0; stroke-opacity:1; 
stroke-linecap:round; stroke-linejoin:round;">
<circle cx="25500.1" cy="12546.3" r="196.85" /> 
</g>
<g style="fill:#FFFFFF; fill-opacity:1.0; 
stroke:#FFFFFF; stroke-width:39.3701; stroke-opacity:1; 
stroke-linecap:round; stroke-linejoin:round;">
</g>
<g style="fill:#FFFFFF; fill-opacity:1.0; 
stroke:#FFFFFF; stroke-width:0; stroke-opacity:1; 
stroke-linecap:round; stroke-linejoin:round;">
<circle cx="25500.1" cy="13546.3" r="196.85" /> 
</g>
<g style="fill:#FFFFFF; fill-opacity:1.0; 
stroke:#FFFFFF; stroke-width:39.3701; stroke-opacity:1; 
stroke-linecap:round; stroke-linejoin:round;">
</g>
<g style="fill:#FFFFFF; fill-opacity:1.0; 
stroke:#FFFFFF; stroke-width:0; stroke-opacity:1; 
stroke-linecap:round; stroke-linejoin:round;">
<circle cx="25500.1" cy="14546.3" r="196.85" /> 
</g>
<g style="fill:#FFFFFF; fill-opacity:1.0; 
stroke:#FFFFFF; stroke-width:39.3701; stroke-opacity:1; 
stroke-linecap:round; stroke-linejoin:round;">
</g>
<g style="fill:#FFFFFF; fill-opacity:1.0; 
stroke:#FFFFFF; stroke-width:0; stroke-opacity:1; 
stroke-linecap:round; stroke-linejoin:round;">
<circle cx="25500.1" cy="15546.3" r="196.85" /> 
</g>
<g style="fill:#FFFFFF; fill-opacity:1.0; 
stroke:#FFFFFF; stroke-width:39.3701; stroke-opacity:1; 
stroke-linecap:round; stroke-linejoin:round;">
</g>
<g style="fill:#FFFFFF; fill-opacity:1.0; 
stroke:#FFFFFF; stroke-width:0; stroke-opacity:1; 
stroke-linecap:round; stroke-linejoin:round;">
<circle cx="25500.1" cy="16546.3" r="196.85" /> 
</g>
<g style="fill:#FFFFFF; fill-opacity:1.0; 
stroke:#FFFFFF; stroke-width:39.3701; stroke-opacity:1; 
stroke-linecap:round; stroke-linejoin:round;">
</g>
<g style="fill:#FFFFFF; fill-opacity:1.0; 
stroke:#FFFFFF; stroke-width:0; stroke-opacity:1; 
stroke-linecap:round; stroke-linejoin:round;">
<circle cx="25500.1" cy="17546.3" r="196.85" /> 
</g>
<g style="fill:#FFFFFF; fill-opacity:1.0; 
stroke:#FFFFFF; stroke-width:39.3701; stroke-opacity:1; 
stroke-linecap:round; stroke-linejoin:round;">
</g>
<g style="fill:#FFFFFF; fill-opacity:1.0; 
stroke:#FFFFFF; stroke-width:0; stroke-opacity:1; 
stroke-linecap:round; stroke-linejoin:round;">
<circle cx="25500.1" cy="18546.3" r="196.85" /> 
</g>
<g style="fill:#FFFFFF; fill-opacity:1.0; 
stroke:#FFFFFF; stroke-width:39.3701; stroke-opacity:1; 
stroke-linecap:round; stroke-linejoin:round;">
</g>
<g style="fill:#FFFFFF; fill-opacity:1.0; 
stroke:#FFFFFF; stroke-width:0; stroke-opacity:1; 
stroke-linecap:round; stroke-linejoin:round;">
<circle cx="25500.1" cy="19546.3" r="196.85" /> 
</g>
<g style="fill:#FFFFFF; fill-opacity:1.0; 
stroke:#FFFFFF; stroke-width:39.3701; stroke-opacity:1; 
stroke-linecap:round; stroke-linejoin:round;">
</g>
<g style="fill:#FFFFFF; fill-opacity:1.0; 
stroke:#FFFFFF; stroke-width:0; stroke-opacity:1; 
stroke-linecap:round; stroke-linejoin:round;">
<circle cx="25500.1" cy="20546.3" r="196.85" /> 
</g>
<g style="fill:#FFFFFF; fill-opacity:1.0; 
stroke:#FFFFFF; stroke-width:39.3701; stroke-opacity:1; 
stroke-linecap:round; stroke-linejoin:round;">
</g>
<g style="fill:#FFFFFF; fill-opacity:1.0; 
stroke:#FFFFFF; stroke-width:0; stroke-opacity:1; 
stroke-linecap:round; stroke-linejoin:round;">
<circle cx="25500.1" cy="21546.3" r="196.85" /> 
</g>
<g style="fill:#FFFFFF; fill-opacity:1.0; 
stroke:#FFFFFF; stroke-width:39.3701; stroke-opacity:1; 
stroke-linecap:round; stroke-linejoin:round;">
</g>
<g style="fill:#FFFFFF; fill-opacity:1.0; 
stroke:#FFFFFF; stroke-width:0; stroke-opacity:1; 
stroke-linecap:round; stroke-linejoin:round;">
<circle cx="25500.1" cy="22546.3" r="196.85" /> 
</g>
<g style="fill:#FFFFFF; fill-opacity:1.0; 
stroke:#FFFFFF; stroke-width:39.3701; stroke-opacity:1; 
stroke-linecap:round; stroke-linejoin:round;">
</g>
<g style="fill:#FFFFFF; fill-opacity:1.0; 
stroke:#FFFFFF; stroke-width:0; stroke-opacity:1; 
stroke-linecap:round; stroke-linejoin:round;">
<circle cx="25500.1" cy="23546.3" r="196.85" /> 
</g>
<g style="fill:#FFFFFF; fill-opacity:1.0; 
stroke:#FFFFFF; stroke-width:39.3701; stroke-opacity:1; 
stroke-linecap:round; stroke-linejoin:round;">
</g>
<g style="fill:#FFFFFF; fill-opacity:1.0; 
stroke:#FFFFFF; stroke-width:0; stroke-opacity:1; 
stroke-linecap:round; stroke-linejoin:round;">
<circle cx="25500.1" cy="24546.3" r="196.85" /> 
</g>
<g style="fill:#FFFFFF; fill-opacity:1.0; 
stroke:#FFFFFF; stroke-width:39.3701; stroke-opacity:1; 
stroke-linecap:round; stroke-linejoin:round;">
</g>
<g style="fill:#FFFFFF; fill-opacity:1.0; 
stroke:#FFFFFF; stroke-width:0; stroke-opacity:1; 
stroke-linecap:round; stroke-linejoin:round;">
<circle cx="3019.78" cy="24672.2" r="196.85" /> 
</g>
<g style="fill:#FFFFFF; fill-opacity:1.0; 
stroke:#FFFFFF; stroke-width:39.3701; stroke-opacity:1; 
stroke-linecap:round; stroke-linejoin:round;">
</g>
<g style="fill:#FFFFFF; fill-opacity:1.0; 
stroke:#FFFFFF; stroke-width:0; stroke-opacity:1; 
stroke-linecap:round; stroke-linejoin:round;">
<circle cx="3019.78" cy="23672.2" r="196.85" /> 
</g>
<g style="fill:#FFFFFF; fill-opacity:1.0; 
stroke:#FFFFFF; stroke-width:39.3701; stroke-opacity:1; 
stroke-linecap:round; stroke-linejoin:round;">
</g>
<g style="fill:#FFFFFF; fill-opacity:1.0; 
stroke:#FFFFFF; stroke-width:0; stroke-opacity:1; 
stroke-linecap:round; stroke-linejoin:round;">
<circle cx="3019.78" cy="22672.2" r="196.85" /> 
</g>
<g style="fill:#FFFFFF; fill-opacity:1.0; 
stroke:#FFFFFF; stroke-width:39.3701; stroke-opacity:1; 
stroke-linecap:round; stroke-linejoin:round;">
</g>
<g style="fill:#FFFFFF; fill-opacity:1.0; 
stroke:#FFFFFF; stroke-width:0; stroke-opacity:1; 
stroke-linecap:round; stroke-linejoin:round;">
<circle cx="3019.78" cy="21672.2" r="196.85" /> 
</g>
<g style="fill:#FFFFFF; fill-opacity:1.0; 
stroke:#FFFFFF; stroke-width:39.3701; stroke-opacity:1; 
stroke-linecap:round; stroke-linejoin:round;">
</g>
<g style="fill:#FFFFFF; fill-opacity:1.0; 
stroke:#FFFFFF; stroke-width:0; stroke-opacity:1; 
stroke-linecap:round; stroke-linejoin:round;">
<circle cx="3019.78" cy="20672.2" r="196.85" /> 
</g>
<g style="fill:#FFFFFF; fill-opacity:1.0; 
stroke:#FFFFFF; stroke-width:39.3701; stroke-opacity:1; 
stroke-linecap:round; stroke-linejoin:round;">
</g>
<g style="fill:#FFFFFF; fill-opacity:1.0; 
stroke:#FFFFFF; stroke-width:0; stroke-opacity:1; 
stroke-linecap:round; stroke-linejoin:round;">
<circle cx="3019.78" cy="19672.2" r="196.85" /> 
</g>
<g style="fill:#FFFFFF; fill-opacity:1.0; 
stroke:#FFFFFF; stroke-width:39.3701; stroke-opacity:1; 
stroke-linecap:round; stroke-linejoin:round;">
</g>
<g style="fill:#FFFFFF; fill-opacity:1.0; 
stroke:#FFFFFF; stroke-width:0; stroke-opacity:1; 
stroke-linecap:round; stroke-linejoin:round;">
<circle cx="3019.78" cy="18672.2" r="196.85" /> 
</g>
<g style="fill:#FFFFFF; fill-opacity:1.0; 
stroke:#FFFFFF; stroke-width:39.3701; stroke-opacity:1; 
stroke-linecap:round; stroke-linejoin:round;">
</g>
<g style="fill:#FFFFFF; fill-opacity:1.0; 
stroke:#FFFFFF; stroke-width:0; stroke-opacity:1; 
stroke-linecap:round; stroke-linejoin:round;">
<circle cx="3019.78" cy="17672.2" r="196.85" /> 
</g>
<g style="fill:#FFFFFF; fill-opacity:1.0; 
stroke:#FFFFFF; stroke-width:39.3701; stroke-opacity:1; 
stroke-linecap:round; stroke-linejoin:round;">
</g>
<g style="fill:#FFFFFF; fill-opacity:1.0; 
stroke:#FFFFFF; stroke-width:0; stroke-opacity:1; 
stroke-linecap:round; stroke-linejoin:round;">
<circle cx="3019.78" cy="16672.2" r="196.85" /> 
</g>
<g style="fill:#FFFFFF; fill-opacity:1.0; 
stroke:#FFFFFF; stroke-width:39.3701; stroke-opacity:1; 
stroke-linecap:round; stroke-linejoin:round;">
</g>
<g style="fill:#FFFFFF; fill-opacity:1.0; 
stroke:#FFFFFF; stroke-width:0; stroke-opacity:1; 
stroke-linecap:round; stroke-linejoin:round;">
<circle cx="3019.78" cy="15672.2" r="196.85" /> 
</g>
<g style="fill:#FFFFFF; fill-opacity:1.0; 
stroke:#FFFFFF; stroke-width:39.3701; stroke-opacity:1; 
stroke-linecap:round; stroke-linejoin:round;">
</g>
<g style="fill:#FFFFFF; fill-opacity:1.0; 
stroke:#FFFFFF; stroke-width:0; stroke-opacity:1; 
stroke-linecap:round; stroke-linejoin:round;">
<circle cx="3019.78" cy="14672.2" r="196.85" /> 
</g>
<g style="fill:#FFFFFF; fill-opacity:1.0; 
stroke:#FFFFFF; stroke-width:39.3701; stroke-opacity:1; 
stroke-linecap:round; stroke-linejoin:round;">
</g>
<g style="fill:#FFFFFF; fill-opacity:1.0; 
stroke:#FFFFFF; stroke-width:0; stroke-opacity:1; 
stroke-linecap:round; stroke-linejoin:round;">
<circle cx="18086.7" cy="26522.6" r="196.85" /> 
</g>
<g style="fill:#FFFFFF; fill-opacity:1.0; 
stroke:#FFFFFF; stroke-width:39.3701; stroke-opacity:1; 
stroke-linecap:round; stroke-linejoin:round;">
</g>
<g style="fill:#FFFFFF; fill-opacity:1.0; 
stroke:#FFFFFF; stroke-width:0; stroke-opacity:1; 
stroke-linecap:round; stroke-linejoin:round;">
<circle cx="17086.7" cy="26522.6" r="196.85" /> 
</g>
<g style="fill:#FFFFFF; fill-opacity:1.0; 
stroke:#FFFFFF; stroke-width:39.3701; stroke-opacity:1; 
stroke-linecap:round; stroke-linejoin:round;">
</g>
<g style="fill:#FFFFFF; fill-opacity:1.0; 
stroke:#FFFFFF; stroke-width:0; stroke-opacity:1; 
stroke-linecap:round; stroke-linejoin:round;">
<circle cx="16086.7" cy="26522.6" r="196.85" /> 
</g>
<g style="fill:#FFFFFF; fill-opacity:1.0; 
stroke:#FFFFFF; stroke-width:39.3701; stroke-opacity:1; 
stroke-linecap:round; stroke-linejoin:round;">
</g>
<g style="fill:#FFFFFF; fill-opacity:1.0; 
stroke:#FFFFFF; stroke-width:0; stroke-opacity:1; 
stroke-linecap:round; stroke-linejoin:round;">
<circle cx="15086.7" cy="26522.6" r="196.85" /> 
</g>
<g style="fill:#FFFFFF; fill-opacity:1.0; 
stroke:#FFFFFF; stroke-width:39.3701; stroke-opacity:1; 
stroke-linecap:round; stroke-linejoin:round;">
</g>
<g style="fill:#FFFFFF; fill-opacity:1.0; 
stroke:#FFFFFF; stroke-width:0; stroke-opacity:1; 
stroke-linecap:round; stroke-linejoin:round;">
<circle cx="14086.7" cy="26522.6" r="196.85" /> 
</g>
<g style="fill:#FFFFFF; fill-opacity:1.0; 
stroke:#FFFFFF; stroke-width:39.3701; stroke-opacity:1; 
stroke-linecap:round; stroke-linejoin:round;">
</g>
<g style="fill:#FFFFFF; fill-opacity:1.0; 
stroke:#FFFFFF; stroke-width:0; stroke-opacity:1; 
stroke-linecap:round; stroke-linejoin:round;">
<circle cx="13086.7" cy="26522.6" r="196.85" /> 
</g>
<g style="fill:#FFFFFF; fill-opacity:1.0; 
stroke:#FFFFFF; stroke-width:39.3701; stroke-opacity:1; 
stroke-linecap:round; stroke-linejoin:round;">
</g>
<g style="fill:#FFFFFF; fill-opacity:1.0; 
stroke:#FFFFFF; stroke-width:0; stroke-opacity:1; 
stroke-linecap:round; stroke-linejoin:round;">
<circle cx="12086.7" cy="26522.6" r="196.85" /> 
</g>
<g style="fill:#FFFFFF; fill-opacity:1.0; 
stroke:#FFFFFF; stroke-width:39.3701; stroke-opacity:1; 
stroke-linecap:round; stroke-linejoin:round;">
</g>
<g style="fill:#FFFFFF; fill-opacity:1.0; 
stroke:#FFFFFF; stroke-width:0; stroke-opacity:1; 
stroke-linecap:round; stroke-linejoin:round;">
<circle cx="11086.7" cy="26522.6" r="196.85" /> 
</g>
<g style="fill:#FFFFFF; fill-opacity:1.0; 
stroke:#FFFFFF; stroke-width:39.3701; stroke-opacity:1; 
stroke-linecap:round; stroke-linejoin:round;">
</g>
<g style="fill:#FFFFFF; fill-opacity:1.0; 
stroke:#FFFFFF; stroke-width:0; stroke-opacity:1; 
stroke-linecap:round; stroke-linejoin:round;">
<circle cx="10086.7" cy="26522.6" r="196.85" /> 
</g>
<g style="fill:#FFFFFF; fill-opacity:1.0; 
stroke:#FFFFFF; stroke-width:39.3701; stroke-opacity:1; 
stroke-linecap:round; stroke-linejoin:round;">
</g>
<g style="fill:#000000; fill-opacity:1.0; 
stroke:#000000; stroke-width:39.3701; stroke-opacity:1; 
stroke-linecap:round; stroke-linejoin:round;">
<g >
</g>
<g >
</g>
<g >
</g>
<g >
</g>
<g >
</g>
<g >
</g>
<g >
</g>
<g >
</g>
<g >
</g>
<g >
</g>
<g >
</g>
<g >
</g>
<g >
</g>
<g >
</g>
<g >
</g>
<g >
</g>
<g >
</g>
<g >
</g>
<g >
</g>
<g >
</g>
<g >
</g>
</g> 
</svg>
