0
SECTION
2
HEADER
9
$INSUNITS
70
4
9
$ACADVER
1
AC1014
9
$HANDSEED
5
FFFF
0
ENDSEC
0
SECTION
2
TABLES
0
TABLE
2
VPORT
5
8
100
AcDbSymbolTable
0
ENDTAB
0
TABLE
2
LTYPE
5
5
100
AcDbSymbolTable
0
LTYPE
5
14
100
AcDbSymbolTableRecord
100
AcDbLinetypeTableRecord
2
BYBLOCK
70
0
0
LTYPE
5
15
100
AcDbSymbolTableRecord
100
AcDbLinetypeTableRecord
2
BYLAYER
70
0
0
ENDTAB
0
TABLE
2
LAYER
5
2
100
AcDbSymbolTable
70
2
0
LAYER
5
50
100
AcDbSymbolTableRecord
100
AcDbLayerTableRecord
2
0
70
0
6
CONTINUOUS
0
ENDTAB
0
TABLE
2
STYLE
5
3
100
AcDbSymbolTable
70
1
0
STYLE
5
11
100
AcDbSymbolTableRecord
100
AcDbTextStyleTableRecord
2
STANDARD
70
0
0
ENDTAB
0
TABLE
2
VIEW
5
6
100
AcDbSymbolTable
70
0
0
ENDTAB
0
TABLE
2
UCS
5
7
100
AcDbSymbolTable
70
0
0
ENDTAB
0
TABLE
2
APPID
5
9
100
AcDbSymbolTable
70
2
0
APPID
5
12
100
AcDbSymbolTableRecord
100
AcDbRegAppTableRecord
2
ACAD
70
0
0
ENDTAB
0
TABLE
2
DIMSTYLE
5
A
100
AcDbSymbolTable
70
1
0
ENDTAB
0
TABLE
2
BLOCK_RECORD
5
1
100
AcDbSymbolTable
70
1
0
BLOCK_RECORD
5
1F
100
AcDbSymbolTableRecord
100
AcDbBlockTableRecord
2
*MODEL_SPACE
0
BLOCK_RECORD
5
1B
100
AcDbSymbolTableRecord
100
AcDbBlockTableRecord
2
*PAPER_SPACE
0
ENDTAB
0
ENDSEC
0
SECTION
2
BLOCKS
0
BLOCK
5
20
100
AcDbEntity
100
AcDbBlockBegin
2
*MODEL_SPACE
0
ENDBLK
5
21
100
AcDbEntity
100
AcDbBlockEnd
0
BLOCK
5
1C
100
AcDbEntity
100
AcDbBlockBegin
2
*PAPER_SPACE
0
ENDBLK
5
1D
100
AcDbEntity
100
AcDbBlockEnd
0
ENDSEC
0
SECTION
2
ENTITIES
0
LWPOLYLINE
5
100
100
AcDbEntity
8
0
100
AcDbPolyline
90
45
70
1
43
0.0
10
-46.600760457483574
20
-6.2876608276030037
10
-49.240387650610288
20
8.682408883347037
10
-41.639884067468522
20
21.846867252457834
10
-30.814566520163019
20
15.596867252457852
10
-28.914566520163021
20
18.887763786838715
10
-39.739884067468516
20
25.1377637868387
10
-32.139380484326551
20
38.302222155949231
10
-17.855106221656214
20
43.501272805656001
10
-13.579854430085337
20
31.755115045832156
10
-10.009022471098884
20
33.054791590469691
10
-14.284274262669765
20
44.800949350293529
10
5.3290705182007514e-13
20
49.999999999999986
10
14.284274262670845
20
44.800949350293145
10
10.009022471100002
20
33.054791590469293
10
13.579854430086456
20
31.755115045831744
10
17.855106221657294
20
43.501272805655624
10
32.139380484327333
20
38.302222155948556
10
39.739884067469085
20
25.137763786837724
10
28.914566520163607
20
18.887763786837702
10
30.814566520163606
20
15.596867252456841
10
41.63988406746909
20
21.846867252456867
10
49.240387650610472
20
8.6824088833460031
10
46.600760457483368
20
-6.2876608276041237
10
34.290663544830757
20
-4.1170586067675146
10
33.630800469696425
20
-7.8593280682139071
10
45.940897382349029
20
-10.029930289050512
10
43.30127018922164
20
-25.000000000000444
10
31.6566231196784
20
-34.771019061243756
10
23.621777998596638
20
-25.195463522256535
10
20.710809114744517
20
-27.638056439065384
10
28.745654235826272
20
-37.213611978052597
10
17.10100716628304
20
-46.98463103929592
10
1.8999999999994202
20
-46.984631039295557
10
1.8999999999994022
20
-34.484631039295543
10
-1.9000000000005979
20
-34.484631039295543
10
-1.900000000000579
20
-46.984631039295557
10
-17.101007166283924
20
-46.984631039295209
10
-28.745654235827157
20
-37.213611978051865
10
-20.710809114745423
20
-27.63805643906462
10
-23.62177799859754
20
-25.195463522255771
10
-31.656623119679267
20
-34.77101906124301
10
-43.301270189222187
20
-24.999999999999531
10
-45.94089738234922
20
-10.029930289049393
10
-33.630800469696624
20
-7.8593280682127435
10
-34.29066354483097
20
-4.1170586067663537
0
ENDSEC
0
SECTION
2
OBJECTS
0
DICTIONARY
5
C
100
AcDbDictionary
3
ACAD_GROUP
350
D
3
ACAD_MLINESTYLE
350
17
0
DICTIONARY
5
D
100
AcDbDictionary
0
DICTIONARY
5
1A
330
C
100
AcDbDictionary
0
DICTIONARY
5
17
100
AcDbDictionary
0
ENDSEC
0
EOF
